<svg version="1.1" id="Calque_1" xmlns="http://www.w3.org/2000/svg" xmlns:xlink="http://www.w3.org/1999/xlink" x="0px" y="0px"
         viewBox="0 0 32 32" style="enable-background:new 0 0 32 32;" xml:space="preserve">
<style type="text/css">
        .st0{fill:none;stroke:#AAFF4A;stroke-miterlimit:10;}
</style>
<g>
        <path class="st0" d="M13.8,2c2.2,0,4,1.8,4,4v14c0,2.2-1.8,4-4,4h-8c-2.2,0-4-1.8-4-4V6c0-2.2,1.8-4,4-4H13.8 M13.8,1h-8c-2.8,0-5,2.3-5,5v14
                c0,2.8,2.3,5,5,5h8c2.8,0,5-2.3,5-5V6C18.8,3.3,16.5,1,13.8,1L13.8,1z"/>
</g>
<g>
        <g>
                <line class="st0" x1="2.8" y1="5.5" x2="16.8" y2="5.5"/>
        </g>
        <g>
                <line class="st0" x1="2.8" y1="7.8" x2="16.8" y2="7.8"/>
        </g>
        <g>
                <line class="st0" x1="2.8" y1="10.2" x2="16.8" y2="10.2"/>
        </g>
        <g>
                <line class="st0" x1="2.9" y1="12.5" x2="16.9" y2="12.5"/>
        </g>
        <g>
                <line class="st0" x1="2.9" y1="14.8" x2="16.9" y2="14.8"/>
        </g>
        <g>
                <line class="st0" x1="3" y1="17.2" x2="17" y2="17.2"/>
        </g>
        <g>
                <line class="st0" x1="3" y1="19.5" x2="17" y2="19.5"/>
        </g>
</g>
<path class="st0" d="M29.9,14.5c-5.7,0-11.3,0-17,0c1.9,1.9,3.7,3.7,5.6,5.6v10.4h5.8V20.1C26.2,18.2,28.1,16.4,29.9,14.5z"/>
</svg>

